Dir: kdetoys
----------------------------
new version numbers



Dir: kdetoys/debian
----------------------------
Build-conflict with autoconf2.13.
----------------------------
Final packaging for kdetoys 3.3.
----------------------------
Fix source overrides (see #261435).



Dir: kdetoys/kweather
----------------------------
Fix compilation of kweather during the "make check"



Dir: kdetoys/kworldwatch
----------------------------
backport:
fix #88802
